{
    "/js/app.js": "/js/app.js",
    "/css/app.css": "/css/app.css",
    "/0.065e6b22167d97cd38c6.hot-update.js": "/0.065e6b22167d97cd38c6.hot-update.js",
    "/0.76cd8c26043e9ac6fefe.hot-update.js": "/0.76cd8c26043e9ac6fefe.hot-update.js",
    "/0.cc99857c776391dc3a41.hot-update.js": "/0.cc99857c776391dc3a41.hot-update.js",
    "/0.f2345e6e7b92b72087d1.hot-update.js": "/0.f2345e6e7b92b72087d1.hot-update.js"
}